<?xml version="1.0" encoding="UTF-8" standalone="no"?>
<!-- Created with Inkscape (http://www.inkscape.org/) -->

<svg
   xmlns:dc="http://purl.org/dc/elements/1.1/"
   xmlns:cc="http://creativecommons.org/ns#"
   xmlns:rdf="http://www.w3.org/1999/02/22-rdf-syntax-ns#"
   xmlns:svg="http://www.w3.org/2000/svg"
   xmlns="http://www.w3.org/2000/svg"
   xmlns:sodipodi="http://sodipodi.sourceforge.net/DTD/sodipodi-0.dtd"
   xmlns:inkscape="http://www.inkscape.org/namespaces/inkscape"
   width="17pt"
   height="17pt"
   viewBox="0 0 21.250001 21.25"
   id="svg2"
   version="1.1"
   inkscape:version="0.91 r13725"
   sodipodi:docname="logospourbclogo.svg"
   inkscape:export-filename="/home/h4ck3r/Documents/ManuelDuMo/manueldumo/images/encarts/cloche.png"
   inkscape:export-xdpi="72"
   inkscape:export-ydpi="72">
  <defs
     id="defs4">
    <inkscape:perspective
       sodipodi:type="inkscape:persp3d"
       inkscape:vp_x="177.63636 : -336.83251 : 1"
       inkscape:vp_y="188.78056 : 123.04144 : 1"
       inkscape:vp_z="-581.97629 : 249.67899 : 1"
       inkscape:persp3d-origin="-539.34834 : -225.54551 : 1"
       id="perspective4154" />
  </defs>
  <sodipodi:namedview
     id="base"
     pagecolor="#ffffff"
     bordercolor="#666666"
     borderopacity="1.0"
     inkscape:pageopacity="0.0"
     inkscape:pageshadow="2"
     inkscape:zoom="16.270588"
     inkscape:cx="-24.156883"
     inkscape:cy="12.6109"
     inkscape:document-units="px"
     inkscape:current-layer="g4233"
     showgrid="false"
     inkscape:window-width="1920"
     inkscape:window-height="1026"
     inkscape:window-x="0"
     inkscape:window-y="0"
     inkscape:window-maximized="1"
     units="pt" />
  <metadata
     id="metadata7">
    <rdf:RDF>
      <cc:Work
         rdf:about="">
        <dc:format>image/svg+xml</dc:format>
        <dc:type
           rdf:resource="http://purl.org/dc/dcmitype/StillImage" />
        <dc:title />
      </cc:Work>
    </rdf:RDF>
  </metadata>
  <g
     inkscape:label="Calque 1"
     inkscape:groupmode="layer"
     id="layer1"
     transform="translate(0,-1031.1123)">
    <g
       id="g4275"
       transform="matrix(0.06689477,0,0,0.06689477,-0.3099264,1031.3602)">
      <g
         id="g4233">
        <path
           id="path4235"
           d="m 138.54796,311.04894 c -30.40872,-0.75965 -55.212774,-18.37783 -58.867018,-40.5187 l 119.676568,2.98971 c -4.74796,21.92987 -30.39937,38.28869 -60.80955,37.52899 z"
           style="fill:#010002"
           inkscape:connector-curvature="0" />
        <path
           id="path4237"
           d="M 281.04559,277.38931 195.27635,266.0162 100.63477,253.4666 14.865533,242.09349 18.284564,216.30919 C 49.867973,200.03431 105.20772,150.14122 96.923127,65.840623 102.43821,24.256749 140.75846,-5.0906843 182.34148,0.42327669 223.92449,5.9372377 260.08551,45.745651 247.75882,85.84163 c -25.26128,82.16939 15.47863,143.47584 36.7058,165.76337 z"
           style="fill:#010002"
           inkscape:connector-curvature="0"
           sodipodi:nodetypes="ccccccsscc" />
      </g>
      <g
         id="g4239" />
      <g
         id="g4241" />
      <g
         id="g4243" />
      <g
         id="g4245" />
      <g
         id="g4247" />
      <g
         id="g4249" />
      <g
         id="g4251" />
      <g
         id="g4253" />
      <g
         id="g4255" />
      <g
         id="g4257" />
      <g
         id="g4259" />
      <g
         id="g4261" />
      <g
         id="g4263" />
      <g
         id="g4265" />
      <g
         id="g4267" />
    </g>
  </g>
</svg>
